<?xml version="1.0" encoding="UTF-8" standalone="no"?>
<!-- Created with Inkscape (http://www.inkscape.org/) -->

<svg
   width="100%"
   height="100%"
   viewBox="0 0 80 60"
   id="ppvs"
   version="1.1"
   inkscape:version="1.1 (1:1.1+202105261517+ce6663b3b7)"
   sodipodi:docname="landscape_080x060.svg"
   xmlns:inkscape="http://www.inkscape.org/namespaces/inkscape"
   xmlns:sodipodi="http://sodipodi.sourceforge.net/DTD/sodipodi-0.dtd"
   xmlns="http://www.w3.org/2000/svg"
   xmlns:svg="http://www.w3.org/2000/svg"
   xmlns:rdf="http://www.w3.org/1999/02/22-rdf-syntax-ns#"
   xmlns:cc="http://creativecommons.org/ns#"
   xmlns:dc="http://purl.org/dc/elements/1.1/">
  <defs
     id="defs5015" />
  <sodipodi:namedview
     id="base"
     pagecolor="#ffffff"
     bordercolor="#666666"
     borderopacity="1.0"
     inkscape:pageopacity="0.0"
     inkscape:pageshadow="2"
     inkscape:zoom="5"
     inkscape:cx="40.1"
     inkscape:cy="29.9"
     inkscape:current-layer="layer1"
     inkscape:document-units="px"
     showgrid="false"
     inkscape:window-width="1179"
     inkscape:window-height="640"
     inkscape:window-x="177"
     inkscape:window-y="44"
     inkscape:window-maximized="0"
     inkscape:pagecheckerboard="0" />
  <metadata
     id="metadata5018">
    <rdf:RDF>
      <cc:Work
         rdf:about="">
        <dc:format>image/svg+xml</dc:format>
        <dc:type
           rdf:resource="http://purl.org/dc/dcmitype/StillImage" />
        <dc:title />
      </cc:Work>
    </rdf:RDF>
  </metadata>
  <g
     id="layer1"
     inkscape:label="Background"
     inkscape:groupmode="layer">
    <rect
       style="fill:#7eb4db;"
       id="rect0001"
       width="80"
       height="60"
       x="0"
       y="0" />
    <g
       id="g8265"
       style="display:inline"
       transform="translate(352.92164,-131.52813)">
      <path
         id="path7489"
         style="display:inline;mix-blend-mode:normal;fill:none;stroke:#ffffff;stroke-width:5;stroke-linecap:butt;stroke-linejoin:miter;stroke-miterlimit:4;stroke-dasharray:none;stroke-opacity:1;filter:url(#filter3344)"
         d="m -332.81836,119.23633 c -4.23696,0 -7.67927,5.90482 -7.73633,13.21289 -0.65351,0.7084 -1.26285,1.45073 -1.83593,2.2168 0.0202,-0.0286 0.0382,-0.0595 0.0586,-0.0879 h -0.002 c -0.0442,0.0585 -0.0801,0.11902 -0.12305,0.17774 -0.59014,0.79546 -1.14186,1.61667 -1.64258,2.4668 -0.17515,0.29736 -0.34191,0.59887 -0.50586,0.90234 h -1.46289 c -1.7014,3.11416 -2.86082,6.45254 -3.37891,10.01953 h 1.66211 c -0.0187,0.15289 -0.0384,0.30555 -0.0547,0.45899 -2.8e-4,0.003 -0.002,0.005 -0.002,0.008 -0.0387,0.34534 -0.0696,0.69148 -0.0937,1.04101 0,0.20919 0.0997,0.41387 0.2793,0.61524 -0.33616,1.69939 -0.51953,3.45165 -0.51953,5.24609 0,0.15863 -0.003,0.31275 0,0.47071 -1.41521,4.31505 -3.34989,7.77423 -5.47461,9.3789 1.78275,0.3462 5.01865,-0.29997 6.84375,-1.32812 -2.46684,3.48344 -2.5244,6.92757 -5.39453,7.97265 0.0666,0.0216 0.13616,0.0378 0.20312,0.0586 0.004,0.001 0.008,0.003 0.0117,0.004 0.75629,0.23466 1.53512,0.42397 2.33203,0.56446 0.0511,0.009 0.10309,0.0148 0.1543,0.0234 0.35915,0.0604 0.7205,0.1153 1.08594,0.15625 0,0 0.002,0 0.002,0 0.003,2.9e-4 0.005,-2.8e-4 0.008,0 0.006,7.3e-4 0.0131,0.001 0.0195,0.002 0.39679,0.0439 0.79641,0.077 1.19922,0.0977 10e-4,7e-5 0.003,-6e-5 0.004,0 0.0926,0.005 0.18648,0.004 0.2793,0.008 0.32591,0.0123 0.65165,0.0245 0.98046,0.0215 0.17636,-10e-4 0.35423,-0.0136 0.53126,-0.0195 0.24471,-0.008 0.48863,-0.0123 0.73437,-0.0293 0.25531,-0.0174 0.51147,-0.0494 0.76758,-0.0762 0.17902,-0.0188 0.35784,-0.0313 0.53711,-0.0547 0.43144,-0.0563 0.86321,-0.124 1.29492,-0.20703 0.34949,0.43188 0.75257,0.83907 1.12695,1.25 0.12283,2.91612 -0.0894,5.33419 -0.87109,6.68555 0,0 0,0.002 0,0.002 -0.19525,0.33717 -0.42744,0.60752 -0.69727,0.80274 -0.0896,0.0648 -0.18483,0.12204 -0.2832,0.16992 0,0 0,0.002 0,0.002 0.73643,0.17876 1.51262,0.26196 2.31445,0.26563 0,0 0.002,0 0.002,0 0.80253,0.004 1.6303,-0.0737 2.47265,-0.2168 1.40009,-0.23761 2.83621,-0.66436 4.25196,-1.20117 1.11926,1.09397 2.32873,2.07408 3.61718,2.91601 -0.21554,0.15495 -0.43251,0.31075 -0.66015,0.48242 -2.14983,-0.81323 -4.99976,0.53769 -6.64453,3.26368 -1.28119,2.1234 -1.63197,2.81183 -0.31641,3.88281 -0.60383,2.72931 -2.00641,6.80949 -5.27539,10.90234 -0.30419,0.38348 -0.71505,1.09172 -1.13672,1.8125 -0.25293,0.37537 -0.49598,0.77356 -0.7207,1.19531 0,0 -0.66533,1.20747 -1.01172,1.85743 -0.51457,0.93784 -0.95137,2.07971 -1.24219,3.28906 -0.16119,0.83478 -0.30998,1.71039 -0.39844,2.63672 0,0 0,0.002 0,0.002 -0.0294,0.30816 -0.0526,0.62188 -0.0664,0.94141 0,0 0,0.002 0,0.002 -0.0137,0.31957 -0.0193,0.645 -0.0137,0.97656 0,0 0,0.002 0,0.002 3e-5,0.001 -2e-5,0.003 0,0.004 0.006,0.33037 0.022,0.66688 0.0508,1.00977 0,0 0,0.002 0,0.002 0.0144,0.17246 0.0317,0.34574 0.0527,0.52148 0.021,0.17573 0.0462,0.35217 0.0742,0.53126 0,0 0,0.002 0,0.002 0.056,0.35819 0.12604,0.72167 0.21289,1.09375 0.0144,0.0656 0.0325,0.13005 0.0547,0.19336 0.0222,0.0634 0.0485,0.12489 0.0781,0.18554 0,0 0,0.002 0,0.002 0.0296,0.0606 0.063,0.11842 0.0996,0.17578 0.095,0.14915 0.21584,0.28432 0.35352,0.40625 0.1031,0.43347 0.22193,0.87341 0.36719,1.32226 a 2.3416609,2.0544608 3.6628976 0 0 2.40429,1.55274 h 0.002 a 2.3416609,2.0544608 3.6628976 0 0 2.13477,-1.55469 2.0620104,1.8079295 4.2442266 0 0 0.88672,-2.01367 c -0.0979,-0.3185 -0.17976,-0.62962 -0.24805,-0.93555 a 1.8750106,1.6358615 9.6430276 0 0 0.3086,-1.16601 c -0.25857,-1.62383 -0.12099,-3.00356 0.17968,-4.38867 0,0 0.002,0.002 0.002,0.002 0.229,0.11834 0.48914,0.19234 0.77148,0.21094 1.12935,0.0744 2.17073,-0.77 2.33594,-1.89258 l 0.5293,-3.59766 c 0.009,-0.0202 0.0203,-0.0403 0.0293,-0.0606 0.0269,-0.0604 0.0494,-0.12102 0.0742,-0.18164 0.0184,0.37943 0.042,0.73227 0.0684,1.06641 0.006,0.075 0.0113,0.14781 0.0176,0.2207 0.0652,0.75532 0.14877,1.40198 0.24609,1.9668 0.007,0.0397 0.0145,0.0783 0.0215,0.11719 0.0968,0.54133 0.20496,1.01211 0.31836,1.43945 0.0703,0.26495 0.14218,0.51909 0.21484,0.75977 0.0575,2.23145 0.20539,6.89069 0.7168,10.98242 l 1.19531,-0.15039 0.26562,2.02929 a 3.5,3.5 0 0 0 0.12305,0.55469 c -0.48078,0.28904 -0.83491,0.76609 -0.99023,1.33594 -2.05544,1.0185 -3.482,2.74639 -3.54102,4.70117 -8e-5,0.001 8e-5,0.003 0,0.004 -0.001,0.0405 -0.006,0.0804 -0.006,0.12109 0,0.004 -10e-6,0.008 0,0.0117 -3e-5,0.005 0,0.009 0,0.0137 0,0.46563 0.082,0.90235 0.22266,1.33594 0.0236,0.0221 0.0503,0.0543 0.0742,0.0762 1.5623,1.4302 4.23941,2.30078 7.24023,2.30078 3.60099,0 5.2584,-1.18937 6.57813,-3.11914 0.0213,-0.17144 0.0723,-0.34408 0.0723,-0.51953 0,-0.008 3e-5,-0.0169 0,-0.0254 0,-0.11484 -0.004,-0.22811 -0.01,-0.3418 -0.0205,-0.48501 -0.0814,-0.96568 -0.21094,-1.41406 -0.005,0.008 -0.0121,0.0139 -0.0176,0.0215 -0.0214,-0.0755 -0.0441,-0.15229 -0.0684,-0.22656 -0.25964,-0.79579 -0.67904,-1.52097 -1.24414,-2.12304 0.009,-0.0788 0,-0.14154 0,-0.22266 0,-0.92594 -0.5657,-1.71896 -1.36719,-2.05469 a 3.5,3.5 0 0 0 0.0859,-1.33984 l -0.26172,-1.98633 1.78321,-0.22266 c -0.22513,-1.80114 -0.37948,-4.30053 -0.49219,-6.5625 3.04397,0.11916 6.39061,0.13205 9.44726,0.0391 0.13023,-0.004 0.26738,-0.005 0.39649,-0.01 -0.11268,2.2546 -0.26608,4.73974 -0.49024,6.5332 l 1.51368,0.18946 -0.26563,2.01953 a 3.5,3.5 0 0 0 0.0918,1.33789 c -0.8045,0.33434 -1.37305,1.12851 -1.37305,2.05664 0,0.0811 -0.009,0.14386 0,0.22266 -0.5651,0.60207 -0.9845,1.32725 -1.24414,2.12304 -0.0242,0.0743 -0.0469,0.1511 -0.0684,0.22656 -0.005,-0.008 -0.0121,-0.0139 -0.0176,-0.0215 -0.12953,0.44838 -0.19042,0.92905 -0.21094,1.41406 -0.006,0.11369 -0.01,0.22696 -0.01,0.3418 0,0.003 -2e-5,0.005 0,0.008 -1e-5,0.006 0,0.0117 0,0.0176 0,0.17545 0.051,0.34809 0.0723,0.51953 1.31973,1.92977 2.97714,3.11914 6.57813,3.11914 3.00082,0 5.67793,-0.87058 7.24023,-2.30078 0.0239,-0.0219 0.0506,-0.0541 0.0742,-0.0762 0.14066,-0.43359 0.22266,-0.87031 0.22266,-1.33594 0,-0.008 10e-5,-0.0169 0,-0.0254 0,-2.00633 -1.44748,-3.78588 -3.54688,-4.82617 -0.15531,-0.56985 -0.50945,-1.0469 -0.99023,-1.33594 a 3.5,3.5 0 0 0 0.12305,-0.55469 l 0.26953,-2.0625 1.46484,0.1836 c 0.56873,-4.55032 0.70828,-10.21217 0.74219,-11.77735 0.0536,-0.20384 0.10565,-0.41639 0.15625,-0.64257 0.005,-0.0239 0.0103,-0.052 0.0156,-0.0762 0.0444,-0.2025 0.0881,-0.4171 0.12891,-0.64257 0.003,-0.0183 0.006,-0.0401 0.01,-0.0586 0.0362,-0.20371 0.0709,-0.4186 0.10351,-0.64453 0.009,-0.0592 0.0171,-0.11684 0.0254,-0.17773 0.0738,-0.54287 0.13675,-1.15045 0.1836,-1.84961 0.007,-0.10286 0.0114,-0.21549 0.0176,-0.32227 0.015,-0.25859 0.0284,-0.52768 0.0391,-0.81055 0.005,-0.12704 0.008,-0.25839 0.0117,-0.39062 0.009,-0.29805 0.0159,-0.61172 0.0195,-0.9375 0.001,-0.11241 0.003,-0.21811 0.004,-0.33398 0.0384,-0.1589 0.073,-0.32513 0.10742,-0.49219 8.8e-4,0.001 10e-4,0.003 0.002,0.004 -0.0932,0.8635 0.0581,1.83403 0.48047,2.78125 0.009,0.0197 0.0203,0.0389 0.0293,0.0586 0,0 0,0.002 0,0.002 l 0.5293,3.59766 c 0.16521,1.12259 1.20659,1.96698 2.33594,1.89258 0.28234,-0.0186 0.54444,-0.0945 0.77344,-0.21289 0.30067,1.38512 0.4402,2.76484 0.18164,4.38867 a 1.6358615,1.8750106 80.356972 0 0 0.30859,1.16015 c -0.0686,0.30786 -0.15148,0.62082 -0.25,0.94141 a 1.8079295,2.0620104 85.755773 0 0 0.89648,2.00781 2.0544608,2.3416609 86.337102 0 0 2.12696,1.56055 2.0544608,2.3416609 86.337102 0 0 2.40429,-1.55274 c 0.14526,-0.44885 0.26409,-0.88879 0.36719,-1.32226 0.19079,-0.16855 0.34666,-0.36625 0.45313,-0.58399 0.0296,-0.0607 0.0559,-0.12218 0.0781,-0.18554 0.0222,-0.0633 0.0403,-0.12777 0.0547,-0.19336 0.0868,-0.37208 0.15692,-0.73751 0.21289,-1.0957 0.028,-0.17909 0.0532,-0.35553 0.0742,-0.53126 0.021,-0.17574 0.0383,-0.35097 0.0527,-0.52343 0.0289,-0.34422 0.0451,-0.68207 0.0508,-1.01367 0,0 0,-0.002 0,-0.002 0.006,-0.33156 8e-5,-0.65699 -0.0137,-0.97656 0,0 0,-0.002 0,-0.002 -0.0553,-1.28076 -0.24987,-2.46704 -0.46484,-3.58008 -0.29081,-1.20936 -0.72762,-2.35122 -1.24219,-3.28906 0,0 -0.002,-0.002 -0.002,-0.002 -0.34603,-0.64939 -1.00977,-1.85547 -1.00977,-1.85547 -0.22472,-0.42175 -0.46777,-0.81994 -0.7207,-1.19531 -0.42167,-0.72078 -0.83254,-1.42902 -1.13672,-1.8125 -2.90358,-3.63535 -4.33183,-7.26048 -5.03906,-9.93945 1.21975,-0.91258 0.90563,-1.65253 -0.16407,-3.78516 -1.457,-2.90487 -4.28064,-4.48121 -6.50976,-3.73047 -0.0859,-0.0684 -0.17688,-0.13826 -0.26758,-0.20898 2.3179,-1.2717 4.42815,-2.98008 6.24219,-5.00391 0.0793,0.14846 0.15475,0.29645 0.24219,0.44532 0.14381,0.24488 0.29976,0.48872 0.46679,0.72851 0,0 0,0.002 0,0.002 0.50117,0.71921 1.10851,1.39777 1.84375,1.93164 0.73514,0.53408 1.59672,0.92284 2.60352,1.0625 0,0 0.002,0 0.002,0 -0.0245,-0.19042 -0.0709,-0.3954 -0.13281,-0.61132 0,0 0,-0.002 0,-0.002 -0.43516,-1.5166 -1.69061,-3.6278 -2.36328,-5.875 0.42675,-0.34477 0.8422,-0.70162 1.24804,-1.06836 0.40582,-0.36671 0.80194,-0.74483 1.18555,-1.13281 2.30196,-2.32811 4.19213,-5.03152 5.53516,-8.03906 0.43122,0.29881 0.86348,0.49568 1.28906,0.60937 0,0 0.002,0 0.002,0 0.42492,0.11327 0.84323,0.14378 1.24414,0.10743 0.20067,-0.0182 0.3967,-0.0524 0.5879,-0.10157 0.57386,-0.14749 1.0997,-0.42415 1.54687,-0.77148 -0.12377,-0.0601 -0.24053,-0.15593 -0.35742,-0.25586 -0.048,-0.0425 -0.0976,-0.0813 -0.14453,-0.12891 -0.96431,-0.97486 -1.69052,-3.2485 -2.23438,-5.79101 0.27116,-1.53313 0.40235,-3.08317 0.40235,-4.69141 0,-0.45579 -0.0109,-0.90711 -0.0332,-1.35742 -0.0623,-1.25571 -0.21658,-2.48767 -0.44531,-3.69336 0.24465,-0.20601 0.40148,-0.41791 0.45898,-0.63281 v -0.53125 c -0.0272,-0.38427 -0.0639,-0.76787 -0.10546,-1.14844 -2.2e-4,-0.002 2.1e-4,-0.004 0,-0.006 h 1.70507 c -0.4875,-3.56646 -1.66805,-6.96004 -3.29101,-10.01953 h -1.48828 c -0.0984,-0.18694 -0.19444,-0.37611 -0.29688,-0.56055 -0.54357,-0.97873 -1.14366,-1.92153 -1.79687,-2.82422 0.009,0.004 0.0172,0.009 0.0254,0.0137 -0.23053,-0.32018 -0.46622,-0.62378 -0.70703,-0.92383 0.006,-0.0421 0.0176,-0.0888 0.0176,-0.125 -0.0316,0.0123 -0.064,0.0196 -0.0957,0.0312 -0.17983,-0.22215 -0.35991,-0.4427 -0.54883,-0.66602 0.002,-0.14742 0,-0.29456 0,-0.44336 0,-7.39287 -3.46378,-13.39062 -7.73632,-13.39062 -2.3832,0 -4.5388,1.94292 -5.95899,4.87695 -2.59799,-0.77569 -5.33478,-1.15234 -8.18164,-1.15234 -2.56096,0.1654 -4.94152,0.60295 -7.20313,1.24218 -1.41995,-2.98727 -3.5508,-4.96679 -5.95898,-4.96679 z" />
      <path
         style="display:inline;mix-blend-mode:normal;fill:none;stroke:#efb275;stroke-width:6;stroke-linecap:butt;stroke-linejoin:miter;stroke-miterlimit:4;stroke-dasharray:none;stroke-opacity:1;filter:url(#filter3344)"
         d="m -307.1223,187.26023 c 0,0 -0.95357,9.06689 6.59366,16.62241"
         id="path7388" />
      <path
         style="color:#000000;font-style:normal;font-variant:normal;font-weight:normal;font-stretch:normal;font-size:medium;line-height:normal;font-family:sans-serif;text-indent:0;text-align:start;text-decoration:none;text-decoration-line:none;text-decoration-style:solid;text-decoration-color:#000000;letter-spacing:normal;word-spacing:normal;text-transform:none;writing-mode:lr-tb;direction:ltr;baseline-shift:baseline;text-anchor:start;white-space:normal;clip-rule:nonzero;display:inline;overflow:visible;visibility:visible;isolation:auto;mix-blend-mode:normal;color-interpolation:sRGB;color-interpolation-filters:linearRGB;solid-color:#000000;solid-opacity:1;fill:#efb275;fill-opacity:1;fill-rule:evenodd;stroke:#2f0c00;stroke-width:1.1497;stroke-linecap:round;stroke-linejoin:round;stroke-miterlimit:4;stroke-dasharray:none;stroke-dashoffset:0;stroke-opacity:1;marker:none;marker-start:none;marker-mid:none;marker-end:none;filter:url(#filter3344);color-rendering:auto;image-rendering:auto;shape-rendering:auto;text-rendering:auto;enable-background:accumulate"
         d="m -298.65571,217.6175 a 1.6358615,1.8750106 80.356972 0 0 1.71121,-1.50006 c 0.43462,-2.73057 -0.0481,-4.98316 -0.58388,-6.96736 a 1.636505,1.8757475 80.356962 1 0 -3.63961,0.89628 c 0.50767,1.88054 0.86409,3.6064 0.52064,5.76334 a 1.6358615,1.8750106 80.356972 0 0 1.99156,1.80799 z"
         id="path7390"
         inkscape:connector-curvature="0" />
      <path
         inkscape:connector-curvature="0"
         id="path7392"
         d="m -298.70369,220.1838 a 1.8079295,2.0620104 85.755773 0 0 2.09659,-1.39533 c 0.90046,-2.93008 0.72812,-5.46976 0.45597,-7.72291 a 1.8086419,2.0628229 85.755773 0 0 -4.09996,0.45245 c 0.2578,2.13541 0.37505,4.07931 -0.33622,6.39378 a 1.8079295,2.0620104 85.755773 0 0 1.88347,2.27199 z"
         style="color:#000000;font-style:normal;font-variant:normal;font-weight:normal;font-stretch:normal;font-size:medium;line-height:normal;font-family:sans-serif;text-indent:0;text-align:start;text-decoration:none;text-decoration-line:none;text-decoration-style:solid;text-decoration-color:#000000;letter-spacing:normal;word-spacing:normal;text-transform:none;writing-mode:lr-tb;direction:ltr;baseline-shift:baseline;text-anchor:start;white-space:normal;clip-rule:nonzero;display:inline;overflow:visible;visibility:visible;isolation:auto;mix-blend-mode:normal;color-interpolation:sRGB;color-interpolation-filters:linearRGB;solid-color:#000000;solid-opacity:1;fill:#efb275;fill-opacity:1;fill-rule:evenodd;stroke:#2f0c00;stroke-width:1.1497;stroke-linecap:round;stroke-linejoin:round;stroke-miterlimit:4;stroke-dasharray:none;stroke-dashoffset:0;stroke-opacity:1;marker:none;marker-start:none;marker-mid:none;marker-end:none;filter:url(#filter3344);color-rendering:auto;image-rendering:auto;shape-rendering:auto;text-rendering:auto;enable-background:accumulate" />
      <path
         inkscape:connector-curvature="0"
         id="path7394"
         d="m -297.56512,221.47957 a 2.0544608,2.3416609 86.337102 0 0 2.40447,-1.55202 c 1.07286,-3.31512 0.92087,-6.20377 0.65065,-8.76843 a 2.0552643,2.3425766 86.337098 1 0 -4.6629,0.4485 c 0.25593,2.43066 0.35562,4.64145 -0.49184,7.26005 a 2.0544608,2.3416609 86.337102 0 0 2.09939,2.61187 z"
         style="color:#000000;font-style:normal;font-variant:normal;font-weight:normal;font-stretch:normal;font-size:medium;line-height:normal;font-family:sans-serif;text-indent:0;text-align:start;text-decoration:none;text-decoration-line:none;text-decoration-style:solid;text-decoration-color:#000000;letter-spacing:normal;word-spacing:normal;text-transform:none;writing-mode:lr-tb;direction:ltr;baseline-shift:baseline;text-anchor:start;white-space:normal;clip-rule:nonzero;display:inline;overflow:visible;visibility:visible;isolation:auto;mix-blend-mode:normal;color-interpolation:sRGB;color-interpolation-filters:linearRGB;solid-color:#000000;solid-opacity:1;fill:#efb275;fill-opacity:1;fill-rule:evenodd;stroke:#2f0c00;stroke-width:1.1497;stroke-linecap:round;stroke-linejoin:round;stroke-miterlimit:4;stroke-dasharray:none;stroke-dashoffset:0;stroke-opacity:1;marker:none;marker-start:none;marker-mid:none;marker-end:none;filter:url(#filter3344);color-rendering:auto;image-rendering:auto;shape-rendering:auto;text-rendering:auto;enable-background:accumulate" />
      <path
         style="color:#000000;clip-rule:nonzero;display:inline;overflow:visible;visibility:visible;isolation:auto;mix-blend-mode:normal;color-interpolation:sRGB;color-interpolation-filters:linearRGB;solid-color:#000000;solid-opacity:1;fill:#efb275;fill-opacity:1;fill-rule:evenodd;stroke:none;stroke-width:1.1497;stroke-linecap:round;stroke-linejoin:round;stroke-miterlimit:4;stroke-dasharray:none;stroke-dashoffset:0;stroke-opacity:1;marker:none;marker-start:none;marker-mid:none;marker-end:none;filter:url(#filter3344);color-rendering:auto;image-rendering:auto;shape-rendering:auto;text-rendering:auto;enable-background:accumulate"
         d="m -295.22065,218.90313 c 0.52775,-0.27514 0.89845,-0.73626 1.01367,-1.26098 0.69481,-2.97659 0.34134,-5.49829 -0.0886,-7.72437 -0.29081,-1.20936 -0.72721,-2.3516 -1.24178,-3.28944 -0.34604,-0.64939 -1.01219,-1.85646 -1.01219,-1.85646 -1.73951,-3.26474 -4.45904,-5.23733 -6.07004,-4.40696 -0.30146,0.14392 -0.56166,0.3039 -0.82883,0.44849 -1.67872,0.86372 -2.06031,3.40262 -0.85248,5.67183 0.59986,1.12704 1.51598,2.02868 2.53391,2.49401 0.12332,0.23954 0.23007,0.44041 0.35149,0.67436 0.79256,1.48873 2.05468,2.42641 3.28825,2.70739 0.19604,1.48439 0.27378,2.96774 -0.12256,4.66558 -0.28336,1.14698 0.71741,2.19191 2.04587,2.13631 0.34443,-0.0137 0.68252,-0.10283 0.98298,-0.25928 z"
         id="path7396"
         inkscape:connector-curvature="0"
         sodipodi:nodetypes="cccccccccccccc" />
      <path
         inkscape:connector-curvature="0"
         id="path7398"
         d="m -297.58777,212.83876 c -0.39154,-1.32742 -0.002,-2.43187 0.34259,-2.61078"
         style="color:#000000;font-variation-settings:normal;clip-rule:nonzero;display:inline;overflow:visible;visibility:visible;isolation:auto;mix-blend-mode:normal;color-interpolation:sRGB;color-interpolation-filters:linearRGB;solid-color:#000000;solid-opacity:1;vector-effect:none;fill:none;fill-opacity:1;fill-rule:evenodd;stroke:#dd884f;stroke-width:0.6;stroke-linecap:butt;stroke-linejoin:miter;stroke-miterlimit:4;stroke-dasharray:none;stroke-dashoffset:0;stroke-opacity:1;filter:url(#filter3344);color-rendering:auto;image-rendering:auto;shape-rendering:auto;text-rendering:auto;enable-background:accumulate;stop-color:#000000" />
      <path
         id="path7400"
         style="color:#000000;clip-rule:nonzero;display:inline;overflow:visible;visibility:visible;isolation:auto;mix-blend-mode:normal;color-interpolation:sRGB;color-interpolation-filters:linearRGB;solid-color:#000000;solid-opacity:1;fill:none;fill-opacity:1;fill-rule:evenodd;stroke:#2f0c00;stroke-width:1.1497;stroke-linecap:round;stroke-linejoin:round;stroke-miterlimit:4;stroke-dasharray:none;stroke-dashoffset:0;stroke-opacity:1;marker:none;marker-start:none;marker-mid:none;marker-end:none;filter:url(#filter3344);color-rendering:auto;image-rendering:auto;shape-rendering:auto;text-rendering:auto;enable-background:accumulate"
         d="m -304.13884,187.5739 -5.96658,-0.62684 c 0,0 -0.80654,8.4874 5.13667,16.36518 -0.10442,0.98399 0.10045,2.10668 0.66832,3.17356 0.59985,1.12704 1.51581,2.02792 2.53374,2.49325 0.12332,0.23954 0.22988,0.44103 0.35131,0.67497 0.79256,1.48873 2.05431,2.42622 3.28788,2.7072 0.19604,1.48439 0.2733,2.96801 -0.12304,4.66586 -0.28336,1.14698 0.71861,2.19193 2.04707,2.13632 0.34443,-0.0137 0.68094,-0.10353 0.9814,-0.25999 l 10e-4,-0.001 c 0.52775,-0.27514 0.89877,-0.7343 1.01399,-1.25901 0.69481,-2.97659 0.34052,-5.49911 -0.0894,-7.72519 -0.29081,-1.20936 -0.72707,-2.35257 -1.24164,-3.29041 -0.34603,-0.64939 -1.01167,-1.85559 -1.01167,-1.85559 -0.63762,-0.99964 -1.37776,-2.40508 -1.85676,-3.00895 -5.67244,-7.10204 -5.73268,-14.18896 -5.73268,-14.18896 z"
         sodipodi:nodetypes="ccccccccccccccccc" />
      <path
         sodipodi:nodetypes="csssc"
         inkscape:connector-curvature="0"
         id="path7402"
         d="m -300.32085,206.35046 0.45975,3.12391 c 0.16525,1.12258 -0.61091,2.08624 -1.74027,2.16063 -1.12935,0.0744 -2.17159,-0.76944 -2.3368,-1.89203 l -0.91955,-6.24785"
         style="color:#000000;clip-rule:nonzero;display:inline;overflow:visible;visibility:visible;isolation:auto;mix-blend-mode:normal;color-interpolation:sRGB;color-interpolation-filters:linearRGB;solid-color:#000000;solid-opacity:1;fill:#efb275;fill-opacity:1;fill-rule:evenodd;stroke:#2f0c00;stroke-width:1.1497;stroke-linecap:round;stroke-linejoin:round;stroke-miterlimit:4;stroke-dasharray:none;stroke-dashoffset:0;stroke-opacity:1;marker:none;marker-start:none;marker-mid:none;marker-end:none;filter:url(#filter3344);color-rendering:auto;image-rendering:auto;shape-rendering:auto;text-rendering:auto;enable-background:accumulate" />
      <path
         style="font-variation-settings:normal;mix-blend-mode:normal;vector-effect:none;fill:none;fill-opacity:1;stroke:#2f0c00;stroke-width:1.1497;stroke-linecap:round;stroke-linejoin:round;stroke-miterlimit:4;stroke-dasharray:none;stroke-dashoffset:0;stroke-opacity:1;marker:none;marker-start:none;marker-mid:none;marker-end:none;filter:url(#filter3344);stop-color:#000000"
         d="m -304.85772,203.49512 c 0.24479,-0.93337 0.68692,-1.59959 0.89837,-1.97048"
         id="path7404" />
      <path
         style="display:inline;mix-blend-mode:normal;fill:none;stroke:#efb275;stroke-width:6;stroke-linecap:butt;stroke-linejoin:miter;stroke-miterlimit:4;stroke-dasharray:none;stroke-opacity:1;filter:url(#filter3344)"
         d="m -334.3032,187.26023 c 0,0 0.95356,9.0669 -6.59366,16.62241"
         id="path2653-7" />
      <path
         style="color:#000000;font-style:normal;font-variant:normal;font-weight:normal;font-stretch:normal;font-size:medium;line-height:normal;font-family:sans-serif;text-indent:0;text-align:start;text-decoration:none;text-decoration-line:none;text-decoration-style:solid;text-decoration-color:#000000;letter-spacing:normal;word-spacing:normal;text-transform:none;writing-mode:lr-tb;direction:ltr;baseline-shift:baseline;text-anchor:start;white-space:normal;clip-rule:nonzero;display:inline;overflow:visible;visibility:visible;isolation:auto;mix-blend-mode:normal;color-interpolation:sRGB;color-interpolation-filters:linearRGB;solid-color:#000000;solid-opacity:1;fill:#efb275;fill-opacity:1;fill-rule:evenodd;stroke:#2f0c00;stroke-width:1.1497;stroke-linecap:round;stroke-linejoin:round;stroke-miterlimit:4;stroke-dasharray:none;stroke-dashoffset:0;stroke-opacity:1;marker:none;marker-start:none;marker-mid:none;marker-end:none;filter:url(#filter3344);color-rendering:auto;image-rendering:auto;shape-rendering:auto;text-rendering:auto;enable-background:accumulate"
         d="m -342.76979,217.61751 a 1.8750106,1.6358615 9.6430276 0 1 -1.71121,-1.50007 c -0.43462,-2.73057 0.0481,-4.98316 0.58387,-6.96736 a 1.8757477,1.6365051 9.6430376 1 1 3.63962,0.89629 c -0.50768,1.88053 -0.86409,3.6064 -0.52064,5.76334 a 1.8750106,1.6358615 9.6430276 0 1 -1.99156,1.80799 z"
         id="path2655-5"
         inkscape:connector-curvature="0" />
      <path
         inkscape:connector-curvature="0"
         id="path2657-3"
         d="m -342.72181,220.1838 a 2.0620104,1.8079295 4.2442266 0 1 -2.09659,-1.39533 c -0.90047,-2.93008 -0.72812,-5.46976 -0.45597,-7.72291 a 2.0628229,1.8086419 4.2442266 0 1 4.09995,0.45245 c -0.25779,2.13542 -0.37505,4.07931 0.33622,6.39379 a 2.0620104,1.8079295 4.2442266 0 1 -1.88346,2.27198 z"
         style="color:#000000;font-style:normal;font-variant:normal;font-weight:normal;font-stretch:normal;font-size:medium;line-height:normal;font-family:sans-serif;text-indent:0;text-align:start;text-decoration:none;text-decoration-line:none;text-decoration-style:solid;text-decoration-color:#000000;letter-spacing:normal;word-spacing:normal;text-transform:none;writing-mode:lr-tb;direction:ltr;baseline-shift:baseline;text-anchor:start;white-space:normal;clip-rule:nonzero;display:inline;overflow:visible;visibility:visible;isolation:auto;mix-blend-mode:normal;color-interpolation:sRGB;color-interpolation-filters:linearRGB;solid-color:#000000;solid-opacity:1;fill:#efb275;fill-opacity:1;fill-rule:evenodd;stroke:#2f0c00;stroke-width:1.1497;stroke-linecap:round;stroke-linejoin:round;stroke-miterlimit:4;stroke-dasharray:none;stroke-dashoffset:0;stroke-opacity:1;marker:none;marker-start:none;marker-mid:none;marker-end:none;filter:url(#filter3344);color-rendering:auto;image-rendering:auto;shape-rendering:auto;text-rendering:auto;enable-background:accumulate" />
      <path
         inkscape:connector-curvature="0"
         id="path2659-5"
         d="m -343.86038,221.47957 a 2.3416609,2.0544608 3.6628976 0 1 -2.40447,-1.55201 c -1.07286,-3.31513 -0.92088,-6.20378 -0.65065,-8.76843 a 2.3425766,2.0552643 3.6629016 1 1 4.6629,0.44849 c -0.25594,2.43066 -0.35562,4.64145 0.49184,7.26005 a 2.3416609,2.0544608 3.6628976 0 1 -2.09939,2.61187 z"
         style="color:#000000;font-style:normal;font-variant:normal;font-weight:normal;font-stretch:normal;font-size:medium;line-height:normal;font-family:sans-serif;text-indent:0;text-align:start;text-decoration:none;text-decoration-line:none;text-decoration-style:solid;text-decoration-color:#000000;letter-spacing:normal;word-spacing:normal;text-transform:none;writing-mode:lr-tb;direction:ltr;baseline-shift:baseline;text-anchor:start;white-space:normal;clip-rule:nonzero;display:inline;overflow:visible;visibility:visible;isolation:auto;mix-blend-mode:normal;color-interpolation:sRGB;color-interpolation-filters:linearRGB;solid-color:#000000;solid-opacity:1;fill:#efb275;fill-opacity:1;fill-rule:evenodd;stroke:#2f0c00;stroke-width:1.1497;stroke-linecap:round;stroke-linejoin:round;stroke-miterlimit:4;stroke-dasharray:none;stroke-dashoffset:0;stroke-opacity:1;marker:none;marker-start:none;marker-mid:none;marker-end:none;filter:url(#filter3344);color-rendering:auto;image-rendering:auto;shape-rendering:auto;text-rendering:auto;enable-background:accumulate" />
      <path
         style="color:#000000;clip-rule:nonzero;display:inline;overflow:visible;visibility:visible;isolation:auto;mix-blend-mode:normal;color-interpolation:sRGB;color-interpolation-filters:linearRGB;solid-color:#000000;solid-opacity:1;fill:#efb275;fill-opacity:1;fill-rule:evenodd;stroke:none;stroke-width:1.1497;stroke-linecap:round;stroke-linejoin:round;stroke-miterlimit:4;stroke-dasharray:none;stroke-dashoffset:0;stroke-opacity:1;marker:none;marker-start:none;marker-mid:none;marker-end:none;filter:url(#filter3344);color-rendering:auto;image-rendering:auto;shape-rendering:auto;text-rendering:auto;enable-background:accumulate"
         d="m -346.20485,218.90313 c -0.52776,-0.27513 -0.89845,-0.73626 -1.01367,-1.26098 -0.69481,-2.97658 -0.34134,-5.49829 0.0885,-7.72437 0.29082,-1.20935 0.72722,-2.3516 1.24179,-3.28944 0.34603,-0.64938 1.01219,-1.85646 1.01219,-1.85646 1.73951,-3.26474 4.45904,-5.23732 6.07004,-4.40696 0.30146,0.14392 0.56166,0.3039 0.82883,0.44849 1.67871,0.86372 2.06031,3.40263 0.85247,5.67183 -0.59985,1.12704 -1.51597,2.02868 -2.5339,2.49401 -0.12332,0.23954 -0.23007,0.44042 -0.35149,0.67436 -0.79257,1.48873 -2.05468,2.42641 -3.28825,2.70739 -0.19604,1.4844 -0.27378,2.96774 0.12255,4.66559 0.28337,1.14698 -0.7174,2.19191 -2.04586,2.1363 -0.34443,-0.0137 -0.68252,-0.10282 -0.98299,-0.25928 z"
         id="path2661-6"
         inkscape:connector-curvature="0"
         sodipodi:nodetypes="cccccccccccccc" />
      <path
         inkscape:connector-curvature="0"
         id="path2663-2"
         d="m -343.83773,212.83876 c 0.39154,-1.32741 0.002,-2.43187 -0.34259,-2.61078"
         style="color:#000000;font-variation-settings:normal;clip-rule:nonzero;display:inline;overflow:visible;visibility:visible;isolation:auto;mix-blend-mode:normal;color-interpolation:sRGB;color-interpolation-filters:linearRGB;solid-color:#000000;solid-opacity:1;vector-effect:none;fill:none;fill-opacity:1;fill-rule:evenodd;stroke:#dd884f;stroke-width:0.6;stroke-linecap:butt;stroke-linejoin:miter;stroke-miterlimit:4;stroke-dasharray:none;stroke-dashoffset:0;stroke-opacity:1;filter:url(#filter3344);color-rendering:auto;image-rendering:auto;shape-rendering:auto;text-rendering:auto;enable-background:accumulate;stop-color:#000000" />
      <path
         id="path2665-9"
         style="color:#000000;clip-rule:nonzero;display:inline;overflow:visible;visibility:visible;isolation:auto;mix-blend-mode:normal;color-interpolation:sRGB;color-interpolation-filters:linearRGB;solid-color:#000000;solid-opacity:1;fill:none;fill-opacity:1;fill-rule:evenodd;stroke:#2f0c00;stroke-width:1.1497;stroke-linecap:round;stroke-linejoin:round;stroke-miterlimit:4;stroke-dasharray:none;stroke-dashoffset:0;stroke-opacity:1;marker:none;marker-start:none;marker-mid:none;marker-end:none;filter:url(#filter3344);color-rendering:auto;image-rendering:auto;shape-rendering:auto;text-rendering:auto;enable-background:accumulate"
         d="m -337.28666,187.5739 5.96658,-0.62683 c 0,0 0.80653,8.4874 -5.13668,16.36517 0.10443,0.98399 -0.10044,2.10668 -0.66831,3.17356 -0.59986,1.12704 -1.51581,2.02792 -2.53374,2.49325 -0.12332,0.23954 -0.22988,0.44103 -0.35131,0.67498 -0.79256,1.48872 -2.05431,2.42621 -3.28788,2.70719 -0.19604,1.48439 -0.2733,2.96802 0.12304,4.66586 0.28336,1.14698 -0.71861,2.19193 -2.04707,2.13632 -0.34443,-0.0137 -0.68094,-0.10353 -0.9814,-0.25999 l -10e-4,-0.001 c -0.52775,-0.27514 -0.89877,-0.73429 -1.01399,-1.25901 -0.69481,-2.97659 -0.34052,-5.49911 0.0894,-7.72519 0.29081,-1.20935 0.72707,-2.35257 1.24164,-3.29041 0.34603,-0.64939 1.01167,-1.85559 1.01167,-1.85559 0.63762,-0.99964 1.37775,-2.40508 1.85676,-3.00894 5.67244,-7.10204 5.73268,-14.18897 5.73268,-14.18897 z"
         sodipodi:nodetypes="ccccccccccccccccc" />
      <path
         sodipodi:nodetypes="csssc"
         inkscape:connector-curvature="0"
         id="path2667-1"
         d="m -341.10465,206.35046 -0.45975,3.12392 c -0.16525,1.12257 0.61091,2.08623 1.74027,2.16062 1.12935,0.0744 2.17159,-0.76944 2.3368,-1.89202 l 0.91954,-6.24785"
         style="color:#000000;clip-rule:nonzero;display:inline;overflow:visible;visibility:visible;isolation:auto;mix-blend-mode:normal;color-interpolation:sRGB;color-interpolation-filters:linearRGB;solid-color:#000000;solid-opacity:1;fill:#efb275;fill-opacity:1;fill-rule:evenodd;stroke:#2f0c00;stroke-width:1.1497;stroke-linecap:round;stroke-linejoin:round;stroke-miterlimit:4;stroke-dasharray:none;stroke-dashoffset:0;stroke-opacity:1;marker:none;marker-start:none;marker-mid:none;marker-end:none;filter:url(#filter3344);color-rendering:auto;image-rendering:auto;shape-rendering:auto;text-rendering:auto;enable-background:accumulate" />
      <path
         style="font-variation-settings:normal;mix-blend-mode:normal;vector-effect:none;fill:none;fill-opacity:1;stroke:#2f0c00;stroke-width:1.1497;stroke-linecap:round;stroke-linejoin:round;stroke-miterlimit:4;stroke-dasharray:none;stroke-dashoffset:0;stroke-opacity:1;marker:none;marker-start:none;marker-mid:none;marker-end:none;filter:url(#filter3344);stop-color:#000000"
         d="m -336.56779,203.49513 c -0.24478,-0.93338 -0.68692,-1.5996 -0.89837,-1.97048"
         id="path2669-2" />
      <path
         id="path2347-2"
         d="m -331.74969,212.98818 a 3.5,3.5 0 0 0 -3.01367,3.92578 l 0.97266,7.41993 a 3.5,3.5 0 0 0 3.92578,3.01562 3.5,3.5 0 0 0 3.01562,-3.92578 l -0.97461,-7.41992 a 3.5,3.5 0 0 0 -3.92578,-3.01563 z"
         style="color:#000000;font-variation-settings:normal;display:inline;mix-blend-mode:normal;vector-effect:none;fill:#efb275;fill-opacity:1;stroke:#2f0f04;stroke-width:0.999995;stroke-linecap:round;stroke-linejoin:round;stroke-miterlimit:4;stroke-dasharray:none;stroke-dashoffset:0;stroke-opacity:1;marker:none;stop-color:#000000" />
      <path
         inkscape:connector-curvature="0"
         id="path2349-9"
         d="m -332.58855,224.59193 c -1.01914,0 -1.8128,0.6933 -2.06903,1.63339 -2.0994,1.04029 -3.54691,2.8196 -3.54691,4.82593 0,0.46561 0.0809,0.9028 0.22156,1.3364 0.0236,0.0221 0.0501,0.0524 0.074,0.0742 1.5623,1.43021 4.24081,2.30159 7.24163,2.30159 3.60099,0 5.25684,-1.18852 6.57657,-3.11829 0.0213,-0.17144 0.074,-0.34428 0.074,-0.51971 0,-1.55388 -0.54715,-3.01312 -1.55177,-4.08348 0.009,-0.0788 0,-0.14162 0,-0.22274 0,-1.22876 -0.99385,-2.22734 -2.21683,-2.22734 h -4.80312 z"
         style="color:#000000;display:inline;overflow:visible;visibility:visible;mix-blend-mode:normal;fill:#ff5707;fill-opacity:1;fill-rule:evenodd;stroke:none;stroke-width:0.999996;marker:none;enable-background:accumulate" />
      <path
         inkscape:connector-curvature="0"
         style="color:#000000;display:inline;overflow:visible;visibility:visible;mix-blend-mode:normal;fill:#f8ffff;fill-opacity:1;fill-rule:evenodd;stroke:none;stroke-width:0.999996;marker:none;enable-background:accumulate"
         d="m -324.2385,229.36908 c -1.2956,1.79698 -2.96967,2.89555 -6.42879,2.89555 -3.00082,0 -5.67933,-0.87138 -7.24163,-2.30158 -0.0239,-0.0219 -0.0506,-0.0521 -0.074,-0.0743 -0.11019,0.38022 -0.22156,0.7853 -0.22156,1.18792 0,0.46563 0.0809,0.90282 0.22156,1.33641 0.0236,0.0221 0.0501,0.0524 0.074,0.0743 1.5623,1.4302 4.24081,2.30159 7.24163,2.30159 3.60099,0 5.25684,-1.18852 6.57657,-3.11829 0.0213,-0.17144 0.074,-0.34426 0.074,-0.51971 0,-0.60835 -0.0593,-1.2202 -0.22156,-1.78188 z"
         id="path2351-3" />
      <path
         style="color:#000000;font-variation-settings:normal;display:inline;overflow:visible;visibility:visible;mix-blend-mode:normal;vector-effect:none;fill:none;fill-opacity:1;stroke:#300d03;stroke-width:0.999996;stroke-linecap:round;stroke-linejoin:miter;stroke-miterlimit:4;stroke-dasharray:none;stroke-dashoffset:0;stroke-opacity:1;marker:none;enable-background:accumulate;stop-color:#000000"
         d="m -332.58855,224.59193 c -1.01914,0 -1.8128,0.6933 -2.06903,1.63339 -2.0994,1.04029 -3.54691,2.8196 -3.54691,4.82593 0,0.46561 0.0809,0.9028 0.22156,1.3364 0.0236,0.0221 0.0501,0.0524 0.074,0.0742 1.5623,1.43021 4.24081,2.30159 7.24163,2.30159 3.60099,0 5.25684,-1.18852 6.57657,-3.11829 0.0213,-0.17144 0.074,-0.34428 0.074,-0.51971 0,-1.55388 -0.54715,-3.01312 -1.55177,-4.08348 0.009,-0.0788 0,-0.14162 0,-0.22274 0,-1.22876 -0.99385,-2.22734 -2.21683,-2.22734 h -4.80312 z"
         id="path2353-1"
         inkscape:connector-curvature="0" />
      <path
         style="display:inline;mix-blend-mode:normal;fill:none;stroke:#300d03;stroke-width:0.999996;stroke-linecap:round;stroke-linejoin:miter;stroke-miterlimit:4;stroke-dasharray:none;stroke-opacity:1"
         d="m -333.41377,227.62956 c 1.24877,-0.53773 3.92471,-0.35848 4.7275,0"
         id="path2355-9"
         inkscape:connector-curvature="0" />
      <path
         id="path2295-9-9-4"
         style="font-variation-settings:normal;display:inline;mix-blend-mode:normal;vector-effect:none;fill:#fdffcc;fill-opacity:1;stroke:#181818;stroke-width:1px;stroke-linecap:round;stroke-linejoin:miter;stroke-miterlimit:4;stroke-dasharray:none;stroke-dashoffset:0;stroke-opacity:1;filter:url(#filter3344);stop-color:#000000"
         d="m -303.61021,188.03873 c 1.55646,3.10309 1.51536,3.25816 -2.52712,5.28577 -4.04249,2.02763 -4.19134,1.96785 -5.74778,-1.13526 -1.55646,-3.10311 -0.9658,-6.5478 1.31926,-7.69392 2.28505,-1.14615 5.3992,0.4403 6.95564,3.54341 z"
         sodipodi:nodetypes="szsss" />
      <path
         sodipodi:nodetypes="szsss"
         d="m -337.42821,186.97895 c -1.79346,2.97243 -1.76457,3.13023 2.10769,5.46658 3.87224,2.33637 4.0253,2.28836 5.81875,-0.68407 1.79345,-2.97242 1.47293,-6.45266 -0.7159,-7.7733 -2.18882,-1.32067 -5.41709,0.0184 -7.21054,2.99079 z"
         style="font-variation-settings:normal;display:inline;mix-blend-mode:normal;vector-effect:none;fill:#fdffcc;fill-opacity:1;stroke:#181818;stroke-width:1px;stroke-linecap:round;stroke-linejoin:miter;stroke-miterlimit:4;stroke-dasharray:none;stroke-dashoffset:0;stroke-opacity:1;filter:url(#filter3344);stop-color:#000000"
         id="path2298-2-3-7" />
      <path
         id="path2085-8-9-4"
         style="mix-blend-mode:normal;fill:#fdffcc;fill-opacity:1;stroke:none;stroke-width:0.999995;stop-color:#000000"
         d="m -304.54683,198.37772 c 0,13.5019 -7.08312,11.43963 -15.82058,11.43963 -8.73745,0 -15.82058,2.06227 -15.82058,-11.43963 0,-6.91479 7.08313,-17.89288 15.82058,-17.89288 8.73746,0 15.82058,11.09073 15.82058,17.89288 z"
         sodipodi:nodetypes="sssss" />
      <path
         d="m -307.35576,189.55459 c -8.10384,2.19487 -16.76434,2.53462 -26.20703,0.26562 -1.17104,2.05225 -1.98619,4.19802 -2.36914,6.18555 11.35263,3.21007 21.58218,2.67047 31.0586,-0.375 -0.43568,-1.95798 -1.29745,-4.06845 -2.48243,-6.07617 z"
         style="mix-blend-mode:normal;fill:#eb281a;fill-opacity:1;stroke:none;stroke-width:0.999996px;stroke-linecap:butt;stroke-linejoin:miter;stroke-opacity:1"
         id="path2283-9-4-5" />
      <path
         id="path2488-3-3-53-3-0"
         d="m -307.68167,122.83905 c -2.58244,2.00602 -3.42807,3.79029 -3.22018,6.33179 -2.76794,-0.87078 -5.70957,-1.32889 -8.77499,-1.32889 -15.73643,0 -28.49865,12.39222 -28.49865,27.67247 0,0.15863 -0.003,0.31104 0,0.469 -1.41521,4.31506 -3.3496,7.77583 -5.47432,9.3805 1.78275,0.3462 5.01778,-0.30075 6.84288,-1.3289 -2.46684,3.48344 -2.52367,6.92833 -5.3938,7.97341 3.11393,1.00786 6.63752,1.22154 10.14359,0.54724 0.34949,0.43189 0.75267,0.83983 1.12705,1.25076 0.16377,3.88816 -0.26884,6.89223 -1.85159,7.66072 2.94814,0.71565 6.52227,-0.0861 9.90204,-1.48528 3.94686,2.03193 8.42092,3.20501 13.2028,3.20501 5.66525,0 10.93874,-1.60877 15.37637,-4.37755 0.97587,1.93791 2.62848,4.0833 5.31329,4.45574 -0.19667,-1.52802 -1.72688,-3.91999 -2.49565,-6.48821 3.41405,-2.75819 6.17925,-6.2303 7.96996,-10.24035 1.72487,1.19525 3.47681,0.76998 4.66927,-0.15622 -1.22082,-0.59272 -2.10238,-3.20792 -2.73716,-6.1755 0.27116,-1.53313 0.40254,-3.08197 0.40254,-4.69021 0,-7.29263 -2.8935,-13.91632 -7.64794,-18.83919 1.00029,-1.23575 1.6906,-2.4366 1.6906,-2.97045 -1.43834,0.55864 -2.94592,0.44044 -5.47429,-0.15623 -0.56539,-0.41293 -1.09373,-0.87795 -1.69062,-1.25073 -1.71423,-3.00165 -3.936,-7.84246 -3.3812,-9.45867 z"
         style="display:inline;overflow:visible;visibility:visible;mix-blend-mode:normal;fill:#ffc500;fill-opacity:1;fill-rule:evenodd;stroke:none;stroke-width:1;stroke-linecap:butt;stroke-linejoin:miter;stroke-miterlimit:4;stroke-dasharray:none;stroke-dashoffset:0;stroke-opacity:1;marker:none;filter:url(#filter3344);enable-background:accumulate"
         inkscape:connector-curvature="0" />
      <path
         d="m -298.8009,158.79443 c -0.15333,0.20234 -0.31167,0.40447 -0.47259,0.60767 0.0795,2.57936 0.3978,4.95214 1.13223,8.53449 -1.60763,-1.16516 -3.25575,-2.53967 -5.12169,-4.23436 -1.35974,1.24857 -2.85115,2.41805 -4.44433,3.44284 -1.16382,1.54924 -2.57577,3.43478 -4.07019,6.37088 0,-1.04228 -0.34219,-2.28371 -0.94322,-3.85121 -5.98748,2.1964 -12.86645,1.81199 -19.65978,-4.14145 -3.7738,3.55715 -8.36487,4.4066 -8.36487,4.4066 0,0 1.00268,-3.08202 0.79159,-6.20249 -2.53048,2.91322 -6.59436,6.26224 -12.04516,8.33901 3.06475,0.95348 6.51035,1.14962 9.94213,0.48961 0.34949,0.43188 0.75196,0.83924 1.12634,1.25017 0.16377,3.88818 -0.26822,6.89322 -1.85098,7.66168 2.94814,0.71562 6.52297,-0.0869 9.90275,-1.48629 3.94685,2.03196 8.41918,3.20479 13.20105,3.20479 5.66526,0 10.93931,-1.60874 15.37694,-4.37755 0.97588,1.93791 2.6279,4.08448 5.31271,4.45691 -0.19667,-1.52801 -1.72611,-3.9207 -2.49489,-6.48892 3.41405,-2.75817 6.17834,-6.22935 7.96906,-10.23942 1.72487,1.19523 3.47833,0.76945 4.67079,-0.15676 -0.17739,-0.0861 -0.34652,-0.22607 -0.51001,-0.39288 -3.46299,-0.83135 -6.79726,-3.69709 -9.44788,-7.19332 z"
         style="display:inline;mix-blend-mode:normal;fill:#b1811c;fill-opacity:1;stroke:none;stroke-width:1px;stroke-linecap:butt;stroke-linejoin:miter;stroke-opacity:1;filter:url(#filter3344)"
         id="path1210-6-5-6-3" />
      <path
         id="path2091-0-7-6"
         style="font-variation-settings:normal;display:inline;mix-blend-mode:normal;vector-effect:none;fill:#ffecaa;fill-opacity:0.468229;stroke:none;stroke-width:1px;stroke-linecap:butt;stroke-linejoin:miter;stroke-miterlimit:4;stroke-dasharray:none;stroke-dashoffset:0;stroke-opacity:1;marker:none;filter:url(#filter3344);stop-color:#000000"
         d="m -307.68241,122.83881 c -2.58245,2.00605 -3.42699,3.78981 -3.21911,6.33134 -2.76793,-0.87081 -5.71076,-1.3281 -8.77618,-1.3281 -15.02961,0 -27.33658,11.30657 -28.41269,25.63439 24.40491,-28.41673 42.04127,-20.73327 51.85693,-13.6834 -0.78724,-1.09968 -1.65077,-2.14367 -2.59183,-3.11805 1.00029,-1.23575 1.69048,-2.43681 1.69048,-2.97067 -1.43834,0.55868 -2.94593,0.44028 -5.4743,-0.15649 -0.56539,-0.4129 -1.09359,-0.87625 -1.69049,-1.249 -1.71423,-3.00165 -3.93762,-7.84395 -3.38281,-9.46016 z" />
      <path
         inkscape:connector-curvature="0"
         style="display:inline;overflow:visible;visibility:visible;mix-blend-mode:normal;fill:none;fill-opacity:1;fill-rule:evenodd;stroke:#2f0c00;stroke-width:1;stroke-linecap:butt;stroke-linejoin:miter;stroke-miterlimit:4;stroke-dasharray:none;stroke-dashoffset:0;stroke-opacity:1;marker:none;filter:url(#filter3344);enable-background:accumulate"
         d="m -307.68167,122.83905 c -2.58244,2.00602 -3.42807,3.79029 -3.22018,6.33179 -2.76794,-0.87078 -5.70957,-1.32889 -8.77499,-1.32889 -15.73643,0 -28.49865,12.39222 -28.49865,27.67247 0,0.15863 -0.003,0.31104 0,0.469 -1.41521,4.31506 -3.3496,7.77583 -5.47432,9.3805 1.78275,0.3462 5.01778,-0.30075 6.84288,-1.3289 -2.46684,3.48344 -2.52367,6.92833 -5.3938,7.97341 3.11393,1.00786 6.63752,1.22154 10.14359,0.54724 0.34949,0.43189 0.75267,0.83983 1.12705,1.25076 0.16377,3.88816 -0.26884,6.89223 -1.85159,7.66072 2.94814,0.71565 6.52227,-0.0861 9.90204,-1.48528 3.94686,2.03193 8.42092,3.20501 13.2028,3.20501 5.66525,0 10.93874,-1.60877 15.37637,-4.37755 0.97587,1.93791 2.62848,4.0833 5.31329,4.45574 -0.19667,-1.52802 -1.72688,-3.91999 -2.49565,-6.48821 3.41405,-2.75819 6.17925,-6.2303 7.96996,-10.24035 1.72487,1.19525 3.47681,0.76998 4.66927,-0.15622 -1.22082,-0.59272 -2.10238,-3.20792 -2.73716,-6.1755 0.27116,-1.53313 0.40254,-3.08197 0.40254,-4.69021 0,-7.29263 -2.8935,-13.91632 -7.64794,-18.83919 1.00029,-1.23575 1.6906,-2.4366 1.6906,-2.97045 -1.43834,0.55864 -2.94592,0.44044 -5.47429,-0.15623 -0.56539,-0.41293 -1.09373,-0.87795 -1.69062,-1.25073 -1.71423,-3.00165 -3.936,-7.84246 -3.3812,-9.45867 z"
         id="path2048-6-5-1" />
      <path
         id="path2546-5-2-3"
         d="m -310.31873,212.98818 a 3.5,3.5 0 0 1 3.01367,3.92578 l -0.97266,7.41993 a 3.5,3.5 0 0 1 -3.92578,3.01562 3.5,3.5 0 0 1 -3.01562,-3.92578 l 0.97461,-7.41992 a 3.5,3.5 0 0 1 3.92578,-3.01563 z"
         style="color:#000000;font-variation-settings:normal;display:inline;mix-blend-mode:normal;vector-effect:none;fill:#efb275;fill-opacity:1;stroke:#2f0f04;stroke-width:0.999995;stroke-linecap:round;stroke-linejoin:round;stroke-miterlimit:4;stroke-dasharray:none;stroke-dashoffset:0;stroke-opacity:1;marker:none;stop-color:#000000" />
      <path
         inkscape:connector-curvature="0"
         id="path2548-3-5-2"
         d="m -309.47987,224.59193 c 1.01914,0 1.8128,0.6933 2.06903,1.63339 2.0994,1.04029 3.54691,2.8196 3.54691,4.82593 0,0.46561 -0.0809,0.9028 -0.22156,1.3364 -0.0236,0.0221 -0.0501,0.0524 -0.074,0.0742 -1.5623,1.43021 -4.24081,2.30159 -7.24163,2.30159 -3.60099,0 -5.25684,-1.18852 -6.57657,-3.11829 -0.0213,-0.17144 -0.074,-0.34428 -0.074,-0.51971 0,-1.55388 0.54715,-3.01312 1.55177,-4.08348 -0.009,-0.0788 0,-0.14162 0,-0.22274 0,-1.22876 0.99385,-2.22734 2.21683,-2.22734 h 4.80312 z"
         style="color:#000000;display:inline;overflow:visible;visibility:visible;mix-blend-mode:normal;fill:#ff5707;fill-opacity:1;fill-rule:evenodd;stroke:none;stroke-width:0.999996;marker:none;enable-background:accumulate" />
      <path
         inkscape:connector-curvature="0"
         style="color:#000000;display:inline;overflow:visible;visibility:visible;mix-blend-mode:normal;fill:#f8ffff;fill-opacity:1;fill-rule:evenodd;stroke:none;stroke-width:0.999996;marker:none;enable-background:accumulate"
         d="m -317.82992,229.36908 c 1.2956,1.79698 2.96967,2.89555 6.42879,2.89555 3.00082,0 5.67933,-0.87138 7.24163,-2.30158 0.0239,-0.0219 0.0506,-0.0521 0.074,-0.0743 0.11019,0.38022 0.22156,0.7853 0.22156,1.18792 0,0.46563 -0.0809,0.90282 -0.22156,1.33641 -0.0236,0.0221 -0.0501,0.0524 -0.074,0.0743 -1.5623,1.4302 -4.24081,2.30159 -7.24163,2.30159 -3.60099,0 -5.25684,-1.18852 -6.57657,-3.11829 -0.0213,-0.17144 -0.074,-0.34426 -0.074,-0.51971 0,-0.60835 0.0593,-1.2202 0.22156,-1.78188 z"
         id="path2550-5-4-0" />
      <path
         style="color:#000000;font-variation-settings:normal;display:inline;overflow:visible;visibility:visible;mix-blend-mode:normal;vector-effect:none;fill:none;fill-opacity:1;stroke:#300d03;stroke-width:0.999996;stroke-linecap:round;stroke-linejoin:miter;stroke-miterlimit:4;stroke-dasharray:none;stroke-dashoffset:0;stroke-opacity:1;marker:none;enable-background:accumulate;stop-color:#000000"
         d="m -309.47987,224.59193 c 1.01914,0 1.8128,0.6933 2.06903,1.63339 2.0994,1.04029 3.54691,2.8196 3.54691,4.82593 0,0.46561 -0.0809,0.9028 -0.22156,1.3364 -0.0236,0.0221 -0.0501,0.0524 -0.074,0.0742 -1.5623,1.43021 -4.24081,2.30159 -7.24163,2.30159 -3.60099,0 -5.25684,-1.18852 -6.57657,-3.11829 -0.0213,-0.17144 -0.074,-0.34428 -0.074,-0.51971 0,-1.55388 0.54715,-3.01312 1.55177,-4.08348 -0.009,-0.0788 0,-0.14162 0,-0.22274 0,-1.22876 0.99385,-2.22734 2.21683,-2.22734 h 4.80312 z"
         id="path2552-6-7-6"
         inkscape:connector-curvature="0" />
      <path
         style="display:inline;mix-blend-mode:normal;fill:none;stroke:#300d03;stroke-width:0.999996;stroke-linecap:round;stroke-linejoin:miter;stroke-miterlimit:4;stroke-dasharray:none;stroke-opacity:1"
         d="m -308.65465,227.62956 c -1.24877,-0.53773 -3.92471,-0.35848 -4.7275,0"
         id="path2554-2-4-1"
         inkscape:connector-curvature="0" />
      <path
         id="path2135-0-4-5"
         d="m -331.03236,209.43074 c 0,0 0.16123,7.75822 0.74188,12.40386"
         style="font-variation-settings:normal;display:inline;mix-blend-mode:normal;vector-effect:none;fill:none;fill-opacity:1;stroke:#51729e;stroke-width:10;stroke-linecap:butt;stroke-linejoin:miter;stroke-miterlimit:4;stroke-dasharray:none;stroke-dashoffset:0;stroke-opacity:1;filter:url(#filter3344);stop-color:#000000" />
      <path
         style="font-variation-settings:normal;display:inline;mix-blend-mode:normal;vector-effect:none;fill:none;fill-opacity:1;stroke:#51729e;stroke-width:10;stroke-linecap:butt;stroke-linejoin:miter;stroke-miterlimit:4;stroke-dasharray:none;stroke-dashoffset:0;stroke-opacity:1;filter:url(#filter3344);stop-color:#000000"
         d="m -310.76343,209.43074 c 0,0 -0.16123,7.75822 -0.74188,12.40386"
         id="path2150-3-7-4" />
      <path
         id="path2909-1-5-7"
         style="mix-blend-mode:normal;fill:#51729e;fill-opacity:1;stroke:none;stroke-width:0.999998px;stroke-linecap:butt;stroke-linejoin:miter;stroke-opacity:1"
         d="m -336.90183,202.28172 c -0.11687,7.14701 0.82551,8.57619 1.45261,10.92663 0.74998,1.97004 28.39657,2.15444 28.90298,0 0.62709,-2.35044 1.56952,-3.77962 1.45259,-10.92663 -10.15186,2.08864 -19.73285,2.35996 -31.80827,0 z"
         sodipodi:nodetypes="cccccc" />
      <path
         sodipodi:nodetypes="cc"
         id="path2325-0-6-6"
         d="m -330.10019,203.26992 c -0.63563,4.70936 -3.74011,4.03437 -6.58166,4.46508"
         style="mix-blend-mode:normal;fill:none;stroke:#292b43;stroke-width:1px;stroke-linecap:butt;stroke-linejoin:miter;stroke-opacity:1" />
      <path
         style="mix-blend-mode:normal;fill:none;stroke:#292b43;stroke-width:1px;stroke-linecap:butt;stroke-linejoin:miter;stroke-opacity:1"
         d="m -311.92177,203.26992 c 0.63563,4.70936 3.74011,4.03437 6.58166,4.46508"
         id="path2327-6-9-5"
         sodipodi:nodetypes="cc" />
      <path
         sodipodi:nodetypes="csc"
         id="path2329-3-3-6"
         d="m -322.85085,203.93233 c -0.0478,3.64721 0.054,8.00991 0.0664,8.87465 0.0124,0.86474 1.23908,1.52604 1.83677,1.94085"
         style="mix-blend-mode:normal;fill:none;fill-opacity:1;stroke:#3a5084;stroke-width:0.7;stroke-linecap:butt;stroke-linejoin:miter;stroke-miterlimit:4;stroke-dasharray:none;stroke-opacity:1" />
      <path
         id="path2331-2-7-9"
         d="m -322.82268,211.32226 c 1.96753,0.16216 2.95769,-0.48874 3.03292,-1.14448 0.0752,-0.65574 0.23272,-4.74443 0.13114,-6.24711"
         style="font-variation-settings:normal;mix-blend-mode:normal;vector-effect:none;fill:none;fill-opacity:1;stroke:#3a5084;stroke-width:0.7;stroke-linecap:butt;stroke-linejoin:miter;stroke-miterlimit:4;stroke-dasharray:none;stroke-dashoffset:0;stroke-opacity:1;stop-color:#000000" />
      <path
         id="path2135-0-4-4-3"
         style="color:#000000;font-style:normal;font-variant:normal;font-weight:normal;font-stretch:normal;font-size:medium;line-height:normal;font-family:sans-serif;font-variant-ligatures:normal;font-variant-position:normal;font-variant-caps:normal;font-variant-numeric:normal;font-variant-alternates:normal;font-variant-east-asian:normal;font-feature-settings:normal;font-variation-settings:normal;text-indent:0;text-align:start;text-decoration:none;text-decoration-line:none;text-decoration-style:solid;text-decoration-color:#000000;letter-spacing:normal;word-spacing:normal;text-transform:none;writing-mode:lr-tb;direction:ltr;text-orientation:mixed;dominant-baseline:auto;baseline-shift:baseline;text-anchor:start;white-space:normal;shape-padding:0;shape-margin:0;inline-size:0;clip-rule:nonzero;display:inline;overflow:visible;visibility:visible;isolation:auto;mix-blend-mode:normal;color-interpolation:sRGB;color-interpolation-filters:linearRGB;solid-color:#000000;solid-opacity:1;vector-effect:none;fill:none;fill-opacity:1;fill-rule:nonzero;stroke:#1b2634;stroke-linecap:butt;stroke-linejoin:miter;stroke-miterlimit:4;stroke-dasharray:none;stroke-dashoffset:0;stroke-opacity:1;filter:url(#filter3344);color-rendering:auto;image-rendering:auto;shape-rendering:auto;text-rendering:auto;enable-background:accumulate;stop-color:#000000"
         d="m -336.90094,202.28095 c -0.087,5.31828 0.4119,7.46975 0.93164,9.1914 0.0575,2.23145 0.20538,6.89069 0.71679,10.98242 l 9.92383,-1.24023 c -0.22525,-1.80216 -0.37945,-4.30344 -0.49218,-6.56641 3.1747,0.12438 6.6842,0.13992 9.84375,0.0332 -0.11268,2.2546 -0.26608,4.73975 -0.49024,6.53321 l 9.92383,1.24023 c 0.56888,-4.55151 0.70833,-10.2139 0.74219,-11.77734 0.42825,-1.62725 0.7813,-3.85677 0.70703,-8.39648"
         sodipodi:nodetypes="cccccccccc" />
      <path
         sodipodi:nodetypes="czcsscc"
         d="m -325.98669,180.74121 c 0,0 -1.99225,0.83905 -4.90039,3.04883 -2.90814,2.20977 -3.58212,3.23317 -3.57813,5.39648 -1.93224,4.38208 -3.18505,9.83081 -3.22265,11.77539 -0.0576,2.97827 12.45094,3.53246 12.7207,2.35352 0.26976,-1.17894 1.53813,-12.65139 1.21875,-15.97656 -1.79777,-1.00469 -3.31462,-3.20919 -2.23828,-6.59766 z"
         style="mix-blend-mode:normal;fill:#008080;stroke:none;stroke-width:1px;stroke-linecap:butt;stroke-linejoin:miter;stroke-opacity:1"
         id="path2168-3-8-5" />
      <path
         sodipodi:nodetypes="csscc"
         d="m -337.53357,199.46973 c -0.0941,0.60571 -0.14702,1.19331 -0.15429,1.56948 -0.0576,2.97827 12.45094,3.53246 12.7207,2.35352 0.052,-0.22726 0.16188,-1.16437 0.26953,-2.02457 -1.785,0.7874 -10.9331,0.29168 -12.83594,-1.89843 z"
         style="mix-blend-mode:normal;fill:#ffff00;stroke:none;stroke-width:1px;stroke-linecap:butt;stroke-linejoin:miter;stroke-opacity:1"
         id="path2174-6-4-2" />
      <path
         d="m -333.19958,192.93066 c 0,0 -2.1164,1.44283 -3.66797,3.38868 -0.31405,1.24635 -0.53981,2.35788 -0.67383,3.25586 2.15625,-3.42198 3.96905,-4.8365 4.72656,-5.11524 -0.0883,-0.38275 -0.38476,-1.5293 -0.38476,-1.5293 z"
         style="font-variation-settings:normal;mix-blend-mode:normal;vector-effect:none;fill:#ffff00;fill-opacity:1;stroke:none;stroke-width:0.999993px;stroke-linecap:butt;stroke-linejoin:miter;stroke-miterlimit:4;stroke-dasharray:none;stroke-dashoffset:0;stroke-opacity:1;stop-color:#000000"
         id="path2180-0-5-5" />
      <path
         d="m -326.30505,182.43652 c -0.35202,0.19604 -0.66233,0.36016 -1.13672,0.65625 -2.75187,2.34679 -2.99414,5.64063 -2.99414,5.64063 0,0 3.90437,-1.46789 5.98242,-1.77149 0,0 0.0364,-0.0576 0.041,-0.0644 -1.17228,-0.9079 -2.04537,-2.40493 -1.89258,-4.46093 z"
         style="mix-blend-mode:normal;fill:#005a5a;fill-opacity:1;stroke:none;stroke-width:1px;stroke-linecap:butt;stroke-linejoin:miter;stroke-opacity:1"
         id="path2250-6-0-4" />
      <path
         d="m -325.98669,180.74121 c 0,0 -0.95271,0.42627 -2.42578,1.3457 -2.75187,2.34679 -2.99414,5.64063 -2.99414,5.64063 0,0 3.90437,-1.46789 5.98242,-1.77149 0,0 0.0408,-0.0632 0.043,-0.0664 -0.88523,-1.20046 -1.31632,-2.91057 -0.60547,-5.14843 z"
         style="mix-blend-mode:normal;fill:#c4ffff;fill-opacity:1;stroke:none;stroke-width:1px;stroke-linecap:butt;stroke-linejoin:miter;stroke-opacity:1"
         id="path2196-2-3-7" />
      <rect
         ry="2.2708786"
         rx="2.2708786"
         y="188.41814"
         x="-328.40561"
         height="4.7374668"
         width="8.1742363"
         id="rect2201-6-6-4"
         style="font-variation-settings:normal;mix-blend-mode:normal;vector-effect:none;fill:#008080;fill-opacity:1;stroke:none;stroke-width:1px;stroke-linecap:butt;stroke-linejoin:miter;stroke-miterlimit:4;stroke-dasharray:none;stroke-dashoffset:0;stroke-opacity:1;stop-color:#000000" />
      <circle
         r="1.611046"
         cy="190.83018"
         cx="-322.53006"
         id="path2203-1-1-4"
         style="font-variation-settings:normal;mix-blend-mode:normal;vector-effect:none;fill:#ffff00;fill-opacity:1;stroke:none;stroke-width:0.999998px;stroke-linecap:butt;stroke-linejoin:miter;stroke-miterlimit:4;stroke-dasharray:none;stroke-dashoffset:0;stroke-opacity:1;stop-color:#000000" />
      <path
         id="path2248-8-0-3"
         style="mix-blend-mode:normal;fill:none;stroke:#091c22;stroke-width:1px;stroke-linecap:round;stroke-linejoin:miter;stroke-opacity:1"
         d="m -325.98669,180.74121 c 0,0 -1.99225,0.83905 -4.90039,3.04883 -2.90814,2.20977 -3.58212,3.23317 -3.57813,5.39648 -1.93224,4.38208 -3.30185,9.83206 -3.22265,11.77539 0.038,0.93302 0.62484,1.06634 1.11566,1.31981"
         sodipodi:nodetypes="czcsc" />
      <path
         id="path2265-9-3-7"
         style="mix-blend-mode:normal;fill:#008080;stroke:none;stroke-width:1px;stroke-linecap:butt;stroke-linejoin:miter;stroke-opacity:1"
         d="m -315.67916,180.74121 c 0,0 1.99225,0.83905 4.90039,3.04883 2.90814,2.20977 3.58212,3.23317 3.57813,5.39648 1.93224,4.38208 3.18505,9.83081 3.22265,11.77539 0.0576,2.97827 -12.45094,3.53246 -12.7207,2.35352 -0.26976,-1.17894 -1.53813,-12.65139 -1.21875,-15.97656 1.79777,-1.00469 3.31462,-3.20919 2.23828,-6.59766 z"
         sodipodi:nodetypes="czcsscc" />
      <path
         sodipodi:nodetypes="csscc"
         id="path2267-2-2-8"
         style="mix-blend-mode:normal;fill:#ffff00;stroke:none;stroke-width:1px;stroke-linecap:butt;stroke-linejoin:miter;stroke-opacity:1"
         d="m -304.13228,199.46973 c 0.0941,0.60571 0.14702,1.21919 0.15429,1.59536 0.0576,2.97827 -12.45094,3.53246 -12.7207,2.35352 -0.052,-0.22726 -0.16188,-1.19025 -0.26953,-2.05045 1.785,0.7874 10.9331,0.29168 12.83594,-1.89843 z" />
      <path
         id="path2269-0-0-6"
         style="font-variation-settings:normal;mix-blend-mode:normal;vector-effect:none;fill:#ffff00;fill-opacity:1;stroke:none;stroke-width:0.999993px;stroke-linecap:butt;stroke-linejoin:miter;stroke-miterlimit:4;stroke-dasharray:none;stroke-dashoffset:0;stroke-opacity:1;stop-color:#000000"
         d="m -308.46627,192.93066 c 0,0 2.1164,1.44283 3.66797,3.38868 0.31405,1.24635 0.53981,2.35788 0.67383,3.25586 -2.15625,-3.42198 -3.96905,-4.8365 -4.72656,-5.11524 0.0883,-0.38275 0.38476,-1.5293 0.38476,-1.5293 z" />
      <path
         id="path2271-2-6-8"
         style="mix-blend-mode:normal;fill:#005a5a;fill-opacity:1;stroke:none;stroke-width:1px;stroke-linecap:butt;stroke-linejoin:miter;stroke-opacity:1"
         d="m -315.3608,182.43652 c 0.35202,0.19604 0.66233,0.36016 1.13672,0.65625 2.75187,2.34679 2.99414,5.64063 2.99414,5.64063 0,0 -3.90437,-1.46789 -5.98242,-1.77149 0,0 -0.0364,-0.0576 -0.041,-0.0644 1.17228,-0.9079 2.04537,-2.40493 1.89258,-4.46093 z" />
      <path
         id="path2273-3-1-8"
         style="mix-blend-mode:normal;fill:#c4ffff;fill-opacity:1;stroke:none;stroke-width:1px;stroke-linecap:butt;stroke-linejoin:miter;stroke-opacity:1"
         d="m -315.67916,180.74121 c 0,0 0.95271,0.42627 2.42578,1.3457 2.75187,2.34679 2.99414,5.64063 2.99414,5.64063 0,0 -3.90437,-1.46789 -5.98242,-1.77149 0,0 -0.0408,-0.0632 -0.043,-0.0664 0.88523,-1.20046 1.31632,-2.91057 0.60547,-5.14843 z" />
      <circle
         style="font-variation-settings:normal;mix-blend-mode:normal;vector-effect:none;fill:#ffff00;fill-opacity:1;stroke:none;stroke-width:0.999998px;stroke-linecap:butt;stroke-linejoin:miter;stroke-miterlimit:4;stroke-dasharray:none;stroke-dashoffset:0;stroke-opacity:1;stop-color:#000000"
         id="circle2277-7-5-4"
         cx="315.15036"
         cy="190.83018"
         r="1.611046"
         transform="scale(-1,1)" />
      <path
         sodipodi:nodetypes="czcsc"
         d="m -315.67916,180.74121 c 0,0 1.99225,0.83905 4.90039,3.04883 2.90814,2.20977 3.58212,3.23317 3.57813,5.39648 1.93224,4.38208 3.30185,9.83206 3.22265,11.77539 -0.038,0.93302 -0.62484,1.06634 -1.11566,1.31981"
         style="mix-blend-mode:normal;fill:none;stroke:#091c22;stroke-width:1px;stroke-linecap:round;stroke-linejoin:miter;stroke-opacity:1"
         id="path2279-5-5-3" />
      <path
         id="path3524-3-1"
         style="font-variation-settings:normal;display:inline;overflow:visible;visibility:visible;mix-blend-mode:normal;vector-effect:none;fill:#efb275;fill-opacity:1;fill-rule:evenodd;stroke:#2f0f04;stroke-width:0.999998;stroke-linecap:round;stroke-linejoin:round;stroke-miterlimit:4;stroke-dasharray:none;stroke-dashoffset:0;stroke-opacity:1;marker:none;filter:url(#filter3344);enable-background:accumulate;stop-color:#000000"
         d="m -303.78009,145.9071 c -1.34947,11.64449 -21.35723,17.23985 -21.35723,17.23985 0,0 2.5488,-7.03412 4.26012,-8.64062 -3.42261,2.67748 -9.98505,4.82403 -13.12246,5.35954 0.57043,-2.14201 1.38853,-5.30334 1.959,-5.83885 -3.99307,3.74847 -5.39377,5.05486 -5.96416,8.00009 -0.32211,1.66301 -0.20631,6.98875 -0.91522,11.22017 3.82767,7.52471 11.07303,13.27902 19.39169,13.27902 7.94436,0 14.90337,-5.25329 18.8491,-12.27901 -1.47201,-2.37409 -2.35992,-5.83909 -2.22049,-9.50119 0.2704,-7.10713 2.8402,-13.03451 -0.29418,-18.19411 -0.19749,-0.21324 -0.38057,-0.4395 -0.58617,-0.64489 z" />
      <path
         sodipodi:nodetypes="cscsc"
         id="path2717-3-6-4"
         d="m -322.90865,175.98731 c -1.73604,-2.45583 0.8457,-4.82379 2.96461,-4.82379 2.11891,0 5.07927,3.25457 3.13977,5.13333 -1.27117,-2.27171 -0.97809,1.15604 -3.11018,1.15604 -2.13209,0 -1.99681,-3.44991 -2.9942,-1.46558 z"
         style="display:inline;mix-blend-mode:normal;fill:#ec8e5a;fill-opacity:1;stroke:none;stroke-width:1px;stroke-linecap:butt;stroke-linejoin:miter;stroke-opacity:1;filter:url(#filter3344)" />
      <path
         inkscape:connector-curvature="0"
         style="display:inline;mix-blend-mode:normal;fill:none;stroke:#2f0f04;stroke-width:0.800002;stroke-linecap:round;stroke-linejoin:miter;stroke-miterlimit:4;stroke-dasharray:none;stroke-opacity:1;filter:url(#filter3344)"
         d="m -322.36535,175.33484 c 0.99435,0 0.99435,1.92512 2.44065,1.92512 1.44632,0 1.59608,-1.77832 2.50002,-1.77832"
         id="path2719-6-2-9"
         sodipodi:nodetypes="csc" />
      <path
         inkscape:connector-curvature="0"
         style="display:inline;mix-blend-mode:normal;fill:none;stroke:#2f0f04;stroke-width:0.800002;stroke-linecap:round;stroke-linejoin:miter;stroke-miterlimit:4;stroke-dasharray:none;stroke-opacity:1;filter:url(#filter3344)"
         d="m -322.63803,172.42956 c -1.21446,1.4974 -1.27836,3.26705 -0.25567,3.67544"
         id="path2721-7-9-2" />
      <path
         inkscape:connector-curvature="0"
         id="path2723-5-1-0"
         d="m -317.09205,172.42956 c 1.21444,1.4974 1.27836,3.26705 0.25566,3.67544"
         style="display:inline;mix-blend-mode:normal;fill:none;stroke:#2f0f04;stroke-width:0.800002;stroke-linecap:round;stroke-linejoin:miter;stroke-miterlimit:4;stroke-dasharray:none;stroke-opacity:1;filter:url(#filter3344)" />
      <path
         style="display:inline;overflow:visible;visibility:visible;mix-blend-mode:normal;fill:#ffffff;fill-opacity:1;fill-rule:evenodd;stroke:none;stroke-width:0.800001;stroke-linecap:round;stroke-linejoin:round;stroke-miterlimit:4;stroke-dasharray:none;stroke-dashoffset:0;stroke-opacity:1;marker:none;filter:url(#filter3344);enable-background:accumulate"
         d="m -324.4212,166.12637 c 0,2.87521 -2.31809,5.20871 -5.17429,5.20871 -2.8562,0 -5.17426,-2.3335 -5.17426,-5.20871 0,-2.87523 2.31806,-3.22445 5.17426,-3.22445 2.8562,0 5.17429,0.34922 5.17429,3.22445 z"
         id="path2727-0-0-6"
         sodipodi:nodetypes="csssc"
         inkscape:connector-curvature="0" />
      <ellipse
         cy="165.87833"
         cx="-329.34906"
         id="circle2729-9-6-8"
         style="display:inline;overflow:visible;visibility:visible;mix-blend-mode:normal;fill:#000000;fill-opacity:1;fill-rule:evenodd;stroke:none;stroke-width:1.28285;marker:none;filter:url(#filter3344);enable-background:accumulate"
         rx="3.1608469"
         ry="3.1818891" />
      <ellipse
         cy="165.18925"
         cx="-330.29239"
         id="circle2731-3-2-9"
         style="display:inline;overflow:visible;visibility:visible;mix-blend-mode:normal;fill:#ffffff;fill-opacity:1;fill-rule:evenodd;stroke:none;stroke-width:0.999996;marker:none;filter:url(#filter3344);enable-background:accumulate"
         rx="1.1431432"
         ry="1.1507533" />
      <path
         sodipodi:nodetypes="csssc"
         id="path2733-6-6-2"
         d="m -315.68121,166.12637 c 0,2.87521 2.31807,5.20871 5.17428,5.20871 2.85619,0 5.17426,-2.3335 5.17426,-5.20871 0,-2.87523 -2.31807,-3.22445 -5.17426,-3.22445 -2.85621,0 -5.17428,0.34922 -5.17428,3.22445 z"
         style="display:inline;overflow:visible;visibility:visible;mix-blend-mode:normal;fill:#ffffff;fill-opacity:1;fill-rule:evenodd;stroke:none;stroke-width:0.800001;stroke-linecap:round;stroke-linejoin:round;stroke-miterlimit:4;stroke-dasharray:none;stroke-dashoffset:0;stroke-opacity:1;marker:none;filter:url(#filter3344);enable-background:accumulate"
         inkscape:connector-curvature="0" />
      <ellipse
         cy="165.87833"
         cx="310.75333"
         style="display:inline;overflow:visible;visibility:visible;mix-blend-mode:normal;fill:#000000;fill-opacity:1;fill-rule:evenodd;stroke:none;stroke-width:1.28285;marker:none;filter:url(#filter3344);enable-background:accumulate"
         id="circle2735-0-1-6"
         transform="scale(-1,1)"
         rx="3.1608469"
         ry="3.1818891" />
      <ellipse
         cy="165.18925"
         cx="311.55106"
         style="display:inline;overflow:visible;visibility:visible;mix-blend-mode:normal;fill:#ffffff;fill-opacity:1;fill-rule:evenodd;stroke:none;stroke-width:0.999996;marker:none;filter:url(#filter3344);enable-background:accumulate"
         id="circle2737-6-8-6"
         transform="scale(-1,1)"
         rx="1.1431432"
         ry="1.1507533" />
      <path
         inkscape:connector-curvature="0"
         sodipodi:nodetypes="csssc"
         id="path2739-2-7-4"
         d="m -324.4212,166.12637 c 0,2.87521 -2.31809,5.20871 -5.17429,5.20871 -2.8562,0 -5.17426,-2.3335 -5.17426,-5.20871 0,-2.87523 2.31806,-3.22445 5.17426,-3.22445 2.8562,0 5.17429,0.34922 5.17429,3.22445 z"
         style="display:inline;overflow:visible;visibility:visible;mix-blend-mode:normal;fill:none;fill-opacity:1;fill-rule:evenodd;stroke:#2f0f04;stroke-width:0.800001;stroke-linecap:round;stroke-linejoin:round;stroke-miterlimit:4;stroke-dasharray:none;stroke-dashoffset:0;stroke-opacity:1;marker:none;filter:url(#filter3344);enable-background:accumulate" />
      <path
         inkscape:connector-curvature="0"
         style="display:inline;overflow:visible;visibility:visible;mix-blend-mode:normal;fill:none;fill-opacity:1;fill-rule:evenodd;stroke:#2f0f04;stroke-width:0.800001;stroke-linecap:round;stroke-linejoin:round;stroke-miterlimit:4;stroke-dasharray:none;stroke-dashoffset:0;stroke-opacity:1;marker:none;filter:url(#filter3344);enable-background:accumulate"
         d="m -315.68121,166.12637 c 0,2.87521 2.31807,5.20871 5.17428,5.20871 2.85619,0 5.17426,-2.3335 5.17426,-5.20871 0,-2.87523 -2.31807,-3.22445 -5.17426,-3.22445 -2.85621,0 -5.17428,0.34922 -5.17428,3.22445 z"
         id="path2741-6-9-9"
         sodipodi:nodetypes="csssc" />
      <path
         sodipodi:nodetypes="cc"
         id="path2750-1-2-5"
         d="m -310.1693,160.25459 4.24103,0.41475"
         style="display:inline;mix-blend-mode:normal;fill:none;stroke:#2f0f04;stroke-width:1.50002;stroke-linecap:butt;stroke-linejoin:miter;stroke-miterlimit:4;stroke-dasharray:none;stroke-opacity:1;filter:url(#filter3344)" />
      <path
         id="path4054-0-0"
         d="m -332.81755,119.23675 c -4.23696,0 -7.67989,5.90468 -7.73695,13.21275 -4.33813,4.7025 -6.93501,10.74509 -7.38124,17.20312 0,2.45393 12.77783,4.43381 28.45783,4.43381 15.27448,0 27.64692,-1.89084 28.27994,-4.25647 v -0.53203 c -0.43623,-6.15084 -2.81978,-11.78214 -6.58086,-16.22774 0.002,-0.14742 0,-0.29476 0,-0.44356 0,-7.39287 -3.46444,-13.39007 -7.73699,-13.39007 -2.38319,0 -4.53817,1.94315 -5.95836,4.87718 -2.59799,-0.77569 -5.33476,-1.15279 -8.18162,-1.15279 -2.56096,0.1654 -4.94175,0.60222 -7.20335,1.24145 -1.41995,-2.98728 -3.55022,-4.96584 -5.9584,-4.96584 z"
         style="display:inline;overflow:visible;visibility:visible;mix-blend-mode:normal;fill:#782121;fill-opacity:1;fill-rule:evenodd;stroke:none;stroke-width:1;marker:none;filter:url(#filter3344);enable-background:accumulate"
         inkscape:connector-curvature="0" />
      <path
         style="display:inline;mix-blend-mode:normal;fill:#d35f5f;fill-rule:evenodd;stroke:none;stroke-width:2;filter:url(#filter3344)"
         d="m -329.43818,127.57229 c -5.16636,0.58654 -10.76066,6.35679 -13.69531,24.56325 5.10925,1.19132 13.79561,1.95089 23.65558,1.95089 10.33136,0 19.2477,-0.83634 24.18914,-2.1282 -5.40452,-33.3338 -19.73413,-24.2953 -23.92238,-19.77478 -1.92757,-2.06489 -5.91481,-5.10074 -10.22703,-4.61116 z"
         id="path4056-2-4"
         inkscape:connector-curvature="0" />
      <path
         style="display:inline;overflow:visible;visibility:visible;mix-blend-mode:normal;fill:#c83737;fill-opacity:1;fill-rule:evenodd;stroke:none;stroke-width:1;marker:none;filter:url(#filter3344);enable-background:accumulate"
         d="m -297.77883,133.07019 c 0.42632,0.5037 0.76819,1.06782 1.15611,1.59618 0.0501,0.0428 0.12118,0.0556 0.17783,0.0884 -0.42585,-0.59145 -0.86382,-1.12913 -1.33394,-1.68486 z m -44.55428,1.50752 c -0.56365,0.74729 -1.02769,1.50885 -1.51183,2.30559 0.075,-0.12547 0.18959,-0.22963 0.26693,-0.35466 0.39896,-0.64669 0.79669,-1.32719 1.24503,-1.95089 z m -1.51183,2.30559 c -0.92681,1.52525 -1.6908,3.20239 -2.31221,4.87716 0.63732,-1.71766 1.45968,-3.31054 2.40114,-4.87716 -0.0236,-0.01 -0.0641,0.01 -0.0891,0 z m -2.31221,4.87716 c -0.93759,2.52695 -1.58868,5.14336 -1.77859,7.89216 0,2.45393 12.77783,4.43381 28.45783,4.43381 15.27448,0 27.64692,-1.89084 28.27994,-4.25647 v -0.53203 c -0.20184,-2.84722 -0.79864,-5.5997 -1.77861,-8.1582 l -0.26692,0.0884 c 0.0533,0.0965 0.0891,0.16786 0.0891,0.26622 0,2.05343 -11.90025,3.72439 -26.5903,3.72439 -13.95549,0 -25.30349,-1.54698 -26.41239,-3.45835 z m 50.33481,-6.02999 c 0.47767,0.71247 0.92017,1.46203 1.33395,2.21694 -0.40322,-0.75011 -0.86656,-1.50947 -1.33395,-2.21694 z"
         id="path4058-3-8"
         inkscape:connector-curvature="0" />
      <path
         style="display:inline;overflow:visible;visibility:visible;mix-blend-mode:normal;fill:none;stroke:#220707;stroke-width:1;stroke-linecap:butt;stroke-linejoin:miter;stroke-miterlimit:4;stroke-dasharray:none;stroke-dashoffset:0;stroke-opacity:1;marker:none;filter:url(#filter3344);enable-background:accumulate"
         d="m -332.81755,119.23675 c -4.23696,0 -7.67989,5.90468 -7.73695,13.21275 -4.33813,4.7025 -6.93501,10.74509 -7.38124,17.20312 0,2.45393 12.77783,4.43381 28.45783,4.43381 15.27448,0 27.64692,-1.89084 28.27994,-4.25647 v -0.53203 c -0.43623,-6.15084 -2.81978,-11.78214 -6.58086,-16.22774 0.002,-0.14742 0,-0.29476 0,-0.44356 0,-7.39287 -3.46444,-13.39007 -7.73699,-13.39007 -2.38319,0 -4.53817,1.94315 -5.95836,4.87718 -2.59799,-0.77569 -5.33476,-1.15279 -8.18162,-1.15279 -2.56096,0.1654 -4.94175,0.60222 -7.20335,1.24145 -1.41995,-2.98728 -3.55022,-4.96584 -5.9584,-4.96584 z"
         id="path4060-7-7"
         inkscape:connector-curvature="0" />
      <path
         style="display:inline;overflow:visible;visibility:visible;mix-blend-mode:normal;fill:#946344;fill-opacity:1;fill-rule:evenodd;stroke:#23120d;stroke-width:1;stroke-linecap:round;stroke-linejoin:round;stroke-miterlimit:4;stroke-dasharray:none;stroke-dashoffset:0;stroke-opacity:1;marker:none;filter:url(#filter3344);enable-background:accumulate"
         d="m -346.06825,138.12473 c -1.7014,3.11416 -2.86123,6.45334 -3.37932,10.02033 h 25.34524 c -0.009,-0.1459 0,-0.29476 0,-0.44355 0,-3.11088 2.2069,-5.67525 4.98013,-5.67525 2.7732,0 5.06903,2.56437 5.06903,5.67525 0,0.15063 -0.0788,0.2957 -0.0891,0.44355 h 24.54491 c -0.4875,-3.56646 -1.66754,-6.96084 -3.2905,-10.02033 h -53.1805 z"
         id="path4062-5-1"
         inkscape:connector-curvature="0" />
      <ellipse
         style="display:inline;overflow:visible;visibility:visible;mix-blend-mode:normal;fill:#916f6f;fill-opacity:1;fill-rule:evenodd;stroke:#1a1a1a;stroke-width:1;stroke-linecap:round;stroke-linejoin:miter;stroke-miterlimit:4;stroke-dasharray:none;stroke-dashoffset:0;stroke-opacity:1;marker:none;filter:url(#filter3344);enable-background:accumulate"
         id="path4064-9-7"
         cx="-330.50165"
         cy="142.20552"
         rx="9.812336"
         ry="8.861475" />
      <ellipse
         id="path4066-2-2"
         style="display:inline;overflow:visible;visibility:visible;mix-blend-mode:normal;fill:#3c444f;fill-opacity:1;fill-rule:evenodd;stroke:none;stroke-width:1.3389;marker:none;filter:url(#filter3344);enable-background:accumulate"
         cx="-330.50165"
         cy="141.77684"
         rx="7.6405025"
         ry="6.8427076" />
      <path
         style="display:inline;overflow:visible;visibility:visible;mix-blend-mode:normal;fill:#495760;fill-opacity:1;fill-rule:evenodd;stroke:none;stroke-width:1.3389;marker:none;filter:url(#filter3344);enable-background:accumulate"
         d="m -330.50534,134.93241 c -2.96179,0 -5.49092,1.51598 -6.75874,3.7244 1.25424,2.24416 3.76757,3.90173 6.75874,3.90173 2.9912,0 5.50458,-1.65757 6.75878,-3.90173 -1.26788,-2.20842 -3.79697,-3.7244 -6.75878,-3.7244 z"
         id="path4068-2-7"
         inkscape:connector-curvature="0" />
      <ellipse
         ry="3.487597"
         rx="3.4976149"
         style="display:inline;overflow:visible;visibility:visible;mix-blend-mode:normal;fill:#98a1a6;fill-opacity:1;fill-rule:evenodd;stroke:none;stroke-width:1;marker:none;filter:url(#filter3344);enable-background:accumulate"
         id="path4070-8-2"
         cx="-333.17847"
         cy="139.57675" />
      <ellipse
         id="path4072-9-2"
         style="display:inline;overflow:visible;visibility:visible;mix-blend-mode:normal;fill:#916f6f;fill-opacity:1;fill-rule:evenodd;stroke:#1a1a1a;stroke-width:1;stroke-linecap:round;stroke-linejoin:miter;stroke-miterlimit:4;stroke-dasharray:none;stroke-dashoffset:0;stroke-opacity:1;marker:none;filter:url(#filter3344);enable-background:accumulate"
         cx="-307.89255"
         cy="142.20552"
         rx="9.812336"
         ry="8.861475" />
      <ellipse
         style="display:inline;overflow:visible;visibility:visible;mix-blend-mode:normal;fill:#3c444f;fill-opacity:1;fill-rule:evenodd;stroke:none;stroke-width:1.3389;marker:none;filter:url(#filter3344);enable-background:accumulate"
         id="path4074-7-6"
         cx="-307.89255"
         cy="141.77684"
         rx="7.6405025"
         ry="6.8427076" />
      <path
         id="path4076-3-1"
         d="m -307.89618,134.93241 c -2.96183,0 -5.49102,1.51598 -6.75878,3.7244 1.25424,2.24416 3.76754,3.90173 6.75878,3.90173 2.99121,0 5.50454,-1.65757 6.75871,-3.90173 -1.26784,-2.20842 -3.79694,-3.7244 -6.75871,-3.7244 z"
         style="display:inline;overflow:visible;visibility:visible;mix-blend-mode:normal;fill:#495760;fill-opacity:1;fill-rule:evenodd;stroke:none;stroke-width:1.3389;marker:none;filter:url(#filter3344);enable-background:accumulate"
         inkscape:connector-curvature="0" />
      <ellipse
         ry="2.8234215"
         rx="2.831531"
         id="path4078-6-0"
         style="display:inline;overflow:visible;visibility:visible;mix-blend-mode:normal;fill:#98a1a6;fill-opacity:1;fill-rule:evenodd;stroke:none;stroke-width:1;marker:none;filter:url(#filter3344);enable-background:accumulate"
         cx="-311.23547"
         cy="139.79811" />
      <ellipse
         ry="1.765572"
         rx="1.7706436"
         id="path4080-1-6"
         style="display:inline;overflow:visible;visibility:visible;mix-blend-mode:normal;fill:#98a1a6;fill-opacity:1;fill-rule:evenodd;stroke:none;stroke-width:1;marker:none;filter:url(#filter3344);enable-background:accumulate"
         cx="-326.11359"
         cy="143.64688" />
      <ellipse
         ry="1.765572"
         rx="1.7706436"
         style="display:inline;overflow:visible;visibility:visible;mix-blend-mode:normal;fill:#98a1a6;fill-opacity:1;fill-rule:evenodd;stroke:none;stroke-width:1;marker:none;filter:url(#filter3344);enable-background:accumulate"
         id="path4082-2-1"
         cx="-303.50592"
         cy="143.64688" />
      <path
         sodipodi:nodetypes="cc"
         id="path2277-5"
         d="m -329.34889,160.25459 -4.24103,0.41475"
         style="display:inline;mix-blend-mode:normal;fill:none;stroke:#2f0f04;stroke-width:1.50002;stroke-linecap:butt;stroke-linejoin:miter;stroke-miterlimit:4;stroke-dasharray:none;stroke-opacity:1;filter:url(#filter3344)" />
      <path
         inkscape:connector-curvature="0"
         sodipodi:nodetypes="csc"
         id="path2743-3-4-9"
         d="m -328.53017,179.58615 c 2.6719,1.44827 5.59861,2.21098 8.59868,2.21098 3.22515,0 6.31378,-0.99652 9.14097,-2.67645"
         style="display:inline;overflow:visible;visibility:visible;mix-blend-mode:normal;fill:none;stroke:#2f0f04;stroke-width:0.999995;stroke-linecap:round;stroke-linejoin:round;stroke-miterlimit:4;stroke-dasharray:none;stroke-dashoffset:0;stroke-opacity:1;marker:none;filter:url(#filter3344);enable-background:accumulate" />
    </g>
  </g>
</svg>
